Lab 2: Exploring Rodents with ggplot2
…
Rows: 30463 Columns: 15
── Column specification ────────────────────────────────────────────────────────
Delimiter: ","
chr  (7): species_id, sex, day_of_week, plot_type, genus, species, taxa
dbl  (7): record_id, month, day, year, plot_id, hindfoot_length, weight
date (1): date

ℹ Use `spec()` to retrieve the full column specification for this data.
ℹ Specify the column types or set `show_col_types = FALSE` to quiet this message.

Code

print(surveys)

# A tibble: 30,463 × 15
   record_id month   day  year plot_id species_id sex   hindfoot_length weight
       <dbl> <dbl> <dbl> <dbl>   <dbl> <chr>      <chr>           <dbl>  <dbl>
 1        63     8    19  1977       3 DM         M                  35     40
 2        64     8    19  1977       7 DM         M                  37     48
 3        65     8    19  1977       4 DM         F                  34     29
 4        66     8    19  1977       4 DM         F                  35     46
 5        67     8    19  1977       7 DM         M                  35     36
 6        68     8    19  1977       8 DO         F                  32     52
 7        69     8    19  1977       2 PF         M                  15      8
 8        71     8    19  1977       7 DM         F                  36     35
 9        74     8    19  1977       8 PF         M                  12      7
10        75     8    19  1977       8 DM         F                  32     22
# ℹ 30,453 more rows
# ℹ 6 more variables: date <date>, day_of_week <chr>, plot_type <chr>,
#   genus <chr>, species <chr>, taxa <chr>
…
